/home/johnny/projects/catalejo-editor/oursBlockly
date,command,observations
Tue 19 Feb 2019 04:04:24 PM -05,git checkout -b oursBlockly,creando nuevo branch en consola
Tue 19 Feb 2019 04:04:58 PM -05,git push origin oursBlockly,subiendo el branch al remote origin
Tue 19 Feb 2019 05:47:13 PM -05,vim ../.git/modules/blockly/closure-library/config,Verificación de ubicación de submodulo closure-library
Tue 19 Feb 2019 05:48:54 PM -05,vim ../.git/modules/oursBlockly/blockly/config,ubicación del submodulo blockly
Wed 20 Feb 2019 10:23:47 AM -05,git clone -b oursBlockly --single-branch https://gitlab.com/catalejo_team/catalejo-dev/catalejo-editor.git,Clonar unico branch
Wed 20 Feb 2019 11:16:01 AM -05,git submodule update --init --recursive,porner al día los submódulos
Sun 07 Mar 2021 08:39:02 PM -05,git submodule add https://github.com/google/closure-library.git,closure como submodulo
Sun 07 Mar 2021 08:41:37 PM -05,git submodule add https://github.com/google/blockly.git,blockly como submodulo
